[
  {
    "content":[
      {
        "id": 1,
        "answer": "1",
        "question": "Test FAQ 1",
        "username": "Christina H"
      },
      {
        "id": 2,
        "answer": "2",
        "question": "Test FAQ 2",
        "username": "Christina H"
      },
      {
        "id": 3,
        "answer": "3",
        "question": "Test FAQ 1",
        "username": "Christina H"
      },
      {
        "id": 4,
        "answer": "4",
        "question": "Test FAQ 4",
        "username": "Christina H"
      },
      {
        "id": 5,
        "answer": "5",
        "question": "Test FAQ 5",
        "username": "Christina H"
      },
      {
        "id": 6,
        "answer": "6",
        "question": "Test FAQ 6",
        "username": "Christina H"
      },
      {
        "id": 7,
        "answer": "7",
        "question": "Test FAQ 7",
        "username": "Christina H"
      },
      {
        "id": 8,
        "answer": "8",
        "question": "Test FAQ 8",
        "username": "Christina H"
      },
      {
        "id": 9,
        "answer": "9",
        "question": "Test FAQ 9",
        "username": "Christina H"
      },
      {
        "id": 10,
        "answer": "10",
        "question": "Test FAQ 10",
        "username": "Christina H"
      }
    ],
    "pageable":{
      "sort":
      {
        "sorted":false,
        "unsorted":true,
        "empty":true
      },
      "pageSize":10,
      "pageNumber":0,
      "offset":0,
      "paged":true,
      "unpaged":false
    },
    "totalPages":2,
    "totalElements":11,
    "last":false,
    "first":true,
    "sort":{
      "sorted":false,
      "unsorted":true,
      "empty":true
    },
    "numberOfElements":10,
    "size":10,
    "number":0,
    "empty":false
  },
  {
    "content":[
      {
        "id": 11,
        "answer": "11",
        "question": "Test FAQ 11",
        "username": "Christina H"
      }
    ],
    "pageable":{
      "sort":
      {
        "sorted":false,
        "unsorted":true,
        "empty":true
      },
      "pageSize":10,
      "pageNumber":1,
      "offset":0,
      "paged":true,
      "unpaged":false
    },
    "totalPages":2,
    "totalElements":11,
    "last":true,
    "first":false,
    "sort":{
      "sorted":false,
      "unsorted":true,
      "empty":true
    },
    "numberOfElements":1,
    "size":10,
    "number":1,
    "empty":false
  }
]