[
    {
        "content":[
            {
                "id":1,
                "choiceAnswer":"Hello"
            },
            {
                "id":2,
                "choiceAnswer":"World"
            },
            {
                "id":3,
                "trueFalseAnswer":true
            },
            {
                "id":4,
                "choiceAnswer":"Meanie Mario"
            },
            {
                "id":5,
                "minRangeAnswer":1
            },
            {
                "id":6,
                "maxRangeAnswer":19
            },
            {
                "id":7,
                "choiceAnswer":"hello"
            },
            {
                "id":8,
                "maxRangeAnswer":0
            },
            {
                "id":9,
                "trueFalseAnswer":false
            },
            {
                "id":10,
                "choiceAnswer":true
            }
        ],
        "pageable":{
            "sort":
                {
                    "sorted":false,
                    "unsorted":true,
                    "empty":true
                },
                "pageSize":10,
                "pageNumber":0,
                "offset":0,
                "paged":true,
                "unpaged":false
            },
        "totalPages":2,
        "totalElements":11,
        "last":false,
        "first":true,
        "sort":{
            "sorted":false,
            "unsorted":true,
            "empty":true
        },
        "numberOfElements":10,
        "size":10,
        "number":0,
        "empty":false
    },
    {
        "content":[
            {
                "id":11,
                "minRangeAnswer":100
            }
        ],
        "pageable":{
            "sort":
                {
                    "sorted":false,
                    "unsorted":true,
                    "empty":true
                },
                "pageSize":10,
                "pageNumber":1,
                "offset":0,
                "paged":true,
                "unpaged":false
            },
        "totalPages":2,
        "totalElements":11,
        "last":true,
        "first":false,
        "sort":{
            "sorted":false,
            "unsorted":true,
            "empty":true
        },
        "numberOfElements":1,
        "size":10,
        "number":1,
        "empty":false
    }
]