[
    {
        "content":[
            {
                "id":1,
                "question":"Question1",
                "type":"TrueFalse",
                "choices":"10",
                "serviceAnswers":[]
            },
            {
                "id":2,
                "question":"Question2",
                "type":"TrueFalse",
                "choices":"10",
                "serviceAnswers":[]
            },
            {
                "id":3,
                "question":"Question3",
                "type":"TrueFalse",
                "choices":"10",
                "serviceAnswers":[]
            },
            {
                "id":4,
                "question":"Question4",
                "type":"TrueFalse",
                "choices":"10",
                "serviceAnswers":[]
            },
            {
                "id":5,
                "question":"Question5",
                "type":"TrueFalse",
                "choices":"10",
                "serviceAnswers":[]
            },
            {
                "id":6,
                "question":"Question6",
                "type":"TrueFalse",
                "choices":"10",
                "serviceAnswers":[]
            },
            {
                "id":7,
                "question":"Question7",
                "type":"TrueFalse",
                "choices":"10",
                "serviceAnswers":[]
            },
            {
                "id":8,
                "question":"Question8",
                "type":"TrueFalse",
                "choices":"10",
                "serviceAnswers":[]
            },
            {
                "id":9,
                "question":"Question9",
                "type":"TrueFalse",
                "choices":"10",
                "serviceAnswers":[]
            },
            {
                "id":10,
                "question":"Question10",
                "type":"TrueFalse",
                "choices":"10",
                "serviceAnswers":[]
            }
        ],
        "pageable":{
            "sort":
                {
                    "sorted":false,
                    "unsorted":true,
                    "empty":true
                },
                "pageSize":10,
                "pageNumber":0,
                "offset":0,
                "paged":true,
                "unpaged":false
            },
        "totalPages":2,
        "totalElements":11,
        "last":false,
        "first":true,
        "sort":{
            "sorted":false,
            "unsorted":true,
            "empty":true
        },
        "numberOfElements":10,
        "size":10,
        "number":0,
        "empty":false
    },
    {
        "content":[
            {
                "id":11,
                "question":"Question11",
                "type":"TrueFalse",
                "choices":"10",
                "serviceAnswers":[]
            }
        ],
        "pageable":{
            "sort":
                {
                    "sorted":false,
                    "unsorted":true,
                    "empty":true
                },
                "pageSize":10,
                "pageNumber":1,
                "offset":0,
                "paged":true,
                "unpaged":false
            },
        "totalPages":2,
        "totalElements":11,
        "last":true,
        "first":false,
        "sort":{
            "sorted":false,
            "unsorted":true,
            "empty":true
        },
        "numberOfElements":1,
        "size":10,
        "number":1,
        "empty":false
    }
]